Coding Fix
…
provinsi$Aceh

## # A tibble: 368 x 2
##    Date       `New Cases`
##    <date>           <dbl>
##  1 2020-03-26           1
##  2 2020-03-27           3
##  3 2020-03-28           1
##  4 2020-03-29           0
##  5 2020-03-30           0
##  6 2020-03-31           0
##  7 2020-04-01           0
##  8 2020-04-02           0
##  9 2020-04-03           0
## 10 2020-04-04           0
## # ... with 358 more rows

provinsi$`Papua Barat`

## # A tibble: 367 x 2
##    Date       `New Cases`
##    <date>           <dbl>
##  1 2020-03-27           2
##  2 2020-03-28           0
##  3 2020-03-29           0
##  4 2020-03-30           0
##  5 2020-03-31           0
##  6 2020-04-01           0
##  7 2020-04-02           0
##  8 2020-04-03           0
##  9 2020-04-04           0
## 10 2020-04-05           0
## # ... with 357 more rows
…
